\boolfalse {citerequest}\boolfalse {citetracker}\boolfalse {pagetracker}\boolfalse {backtracker}\relax 
\defcounter {refsection}{0}\relax 
\selectlanguage *{english}
\defcounter {refsection}{0}\relax 
\beamer@sectionintoc {1}{Introduction}{3}{0}{1}
\defcounter {refsection}{0}\relax 
\beamer@sectionintoc {2}{Preliminary results}{16}{0}{2}
\defcounter {refsection}{0}\relax 
\beamer@sectionintoc {3}{Conclusion and future work}{42}{0}{3}
